[gd_resource type="StyleBoxFlat" format=2]

[resource]
bg_color = Color( 1, 1, 1, 0.25098 )
corner_radius_top_left = 8
corner_radius_top_right = 8
corner_radius_bottom_right = 8
corner_radius_bottom_left = 8
