[gd_scene load_steps=7 format=2]

[ext_resource path="res://dive/hud_font.tres" type="DynamicFont" id=1]
[ext_resource path="res://sound_button/sound_button_style_normal.tres" type="StyleBox" id=2]
[ext_resource path="res://sound_button/sound_button_style_hover.tres" type="StyleBox" id=3]
[ext_resource path="res://sound_button/sound_button.gd" type="Script" id=4]

[sub_resource type="StyleBoxEmpty" id=1]

[sub_resource type="StyleBoxEmpty" id=2]

[node name="SoundButton" type="CanvasLayer"]
layer = 10
script = ExtResource( 4 )

[node name="Button" type="CheckButton" parent="."]
margin_left = 1092.0
margin_top = 21.0
margin_right = 1244.0
margin_bottom = 58.0
mouse_default_cursor_shape = 2
custom_styles/hover = ExtResource( 3 )
custom_styles/pressed = ExtResource( 3 )
custom_styles/focus = SubResource( 1 )
custom_styles/disabled = SubResource( 2 )
custom_styles/normal = ExtResource( 2 )
custom_fonts/font = ExtResource( 1 )
custom_colors/font_color = Color( 0, 0, 0, 1 )
pressed = true
text = "sound"
align = 1
__meta__ = {
"_edit_use_anchors_": false
}
[connection signal="focus_entered" from="Button" to="." method="focus_entered"]
[connection signal="toggled" from="Button" to="." method="toggled"]
