[gd_resource type="StyleBoxFlat" format=2]

[resource]
bg_color = Color( 0.321569, 0.784314, 0.321569, 1 )
corner_radius_top_left = 4
corner_radius_top_right = 4
corner_radius_bottom_right = 4
corner_radius_bottom_left = 4
